{
  "items": [
    {
      "external_urls": {
        "spotify": "https://open.spotify.com/artist/26dSoYclwsYLMAKD3tpOr4"
      },
      "followers": {
        "href": null,
        "total": 4745367
      },
      "genres": [
        "dance pop",
        "pop",
        "post-teen pop"
      ],
      "href": "https://api.spotify.com/v1/artists/26dSoYclwsYLMAKD3tpOr4",
      "id": "26dSoYclwsYLMAKD3tpOr4",
      "images": [
        {
          "height": 1000,
          "url": "https://i.scdn.co/image/7fa2bde8d2837784a847f8201686b257757a749f",
          "width": 1000
        },
        {
          "height": 640,
          "url": "https://i.scdn.co/image/f3f0e89644c30c96e50ddd483e3abedf744a460f",
          "width": 640
        },
        {
          "height": 200,
          "url": "https://i.scdn.co/image/18f8f2204dd44ecaaaf587ce4429493f01887d93",
          "width": 200
        },
        {
          "height": 64,
          "url": "https://i.scdn.co/image/f9c035d14928a9e9e92d749f78293de8015c88b3",
          "width": 64
        }
      ],
      "name": "Britney Spears",
      "popularity": 76,
      "type": "artist",
      "uri": "spotify:artist:26dSoYclwsYLMAKD3tpOr4"
    },
    {
      "external_urls": {
        "spotify": "https://open.spotify.com/artist/0C8ZW7ezQVs4URX5aX7Kqx"
      },
      "followers": {
        "href": null,
        "total": 10567571
      },
      "genres": [
        "dance pop",
        "pop",
        "post-teen pop"
      ],
      "href": "https://api.spotify.com/v1/artists/0C8ZW7ezQVs4URX5aX7Kqx",
      "id": "0C8ZW7ezQVs4URX5aX7Kqx",
      "images": [
        {
          "height": 640,
          "url": "https://i.scdn.co/image/19306408650f31ea619bde16bf09fd4b68480909",
          "width": 640
        },
        {
          "height": 320,
          "url": "https://i.scdn.co/image/89dca11da29eee5944f7032a64ed96a9525dcf25",
          "width": 320
        },
        {
          "height": 160,
          "url": "https://i.scdn.co/image/e5bba1be80a88cb765b9cab8fcd6b7a161aa6688",
          "width": 160
        }
      ],
      "name": "Selena Gomez",
      "popularity": 85,
      "type": "artist",
      "uri": "spotify:artist:0C8ZW7ezQVs4URX5aX7Kqx"
    },
    {
      "external_urls": {
        "spotify": "https://open.spotify.com/artist/06HL4z0CvFAxyc27GXpf02"
      },
      "followers": {
        "href": null,
        "total": 13687830
      },
      "genres": [
        "dance pop",
        "pop",
        "post-teen pop"
      ],
      "href": "https://api.spotify.com/v1/artists/06HL4z0CvFAxyc27GXpf02",
      "id": "06HL4z0CvFAxyc27GXpf02",
      "images": [
        {
          "height": 640,
          "url": "https://i.scdn.co/image/bdaeccb035a8af87b7a70b62217ff5c633ba6c7c",
          "width": 640
        },
        {
          "height": 320,
          "url": "https://i.scdn.co/image/cec43c2fb746ea2a0c7546aa3408fe2f94887fe4",
          "width": 320
        },
        {
          "height": 160,
          "url": "https://i.scdn.co/image/33bc9128ad82f7d39847b6db6a49d5416502e7e7",
          "width": 160
        }
      ],
      "name": "Taylor Swift",
      "popularity": 85,
      "type": "artist",
      "uri": "spotify:artist:06HL4z0CvFAxyc27GXpf02"
    },
    {
      "external_urls": {
        "spotify": "https://open.spotify.com/artist/6S2OmqARrzebs0tKUEyXyp"
      },
      "followers": {
        "href": null,
        "total": 9761815
      },
      "genres": [
        "dance pop",
        "pop",
        "post-teen pop"
      ],
      "href": "https://api.spotify.com/v1/artists/6S2OmqARrzebs0tKUEyXyp",
      "id": "6S2OmqARrzebs0tKUEyXyp",
      "images": [
        {
          "height": 640,
          "url": "https://i.scdn.co/image/1b7682c463034f7cda95f6ac7a44385dd000422b",
          "width": 640
        },
        {
          "height": 320,
          "url": "https://i.scdn.co/image/b2e15be12453b28ff54fb7624c2920a11f8b8cfe",
          "width": 320
        },
        {
          "height": 160,
          "url": "https://i.scdn.co/image/248c1b018defafe93f9394b41bfdb8110ccff536",
          "width": 160
        }
      ],
      "name": "Demi Lovato",
      "popularity": 86,
      "type": "artist",
      "uri": "spotify:artist:6S2OmqARrzebs0tKUEyXyp"
    },
    {
      "external_urls": {
        "spotify": "https://open.spotify.com/artist/05mFGgWzooDQMWGNcNsM05"
      },
      "followers": {
        "href": null,
        "total": 172082
      },
      "genres": [
        "baile pop"
      ],
      "href": "https://api.spotify.com/v1/artists/05mFGgWzooDQMWGNcNsM05",
      "id": "05mFGgWzooDQMWGNcNsM05",
      "images": [
        {
          "height": 640,
          "url": "https://i.scdn.co/image/7351ae3226a2892f79a4b0c05abdd6654403c7e6",
          "width": 640
        },
        {
          "height": 300,
          "url": "https://i.scdn.co/image/279967b320680557f4fe00aa8d231fa1a7edc949",
          "width": 300
        },
        {
          "height": 64,
          "url": "https://i.scdn.co/image/1271857d4773265b3c6c18c7eb7d8ffcdb72420d",
          "width": 64
        }
      ],
      "name": "Sandy & Junior",
      "popularity": 54,
      "type": "artist",
      "uri": "spotify:artist:05mFGgWzooDQMWGNcNsM05"
    },
    {
      "external_urls": {
        "spotify": "https://open.spotify.com/artist/5YGY8feqx7naU7z4HrwZM6"
      },
      "followers": {
        "href": null,
        "total": 6232114
      },
      "genres": [
        "dance pop",
        "pop",
        "post-teen pop"
      ],
      "href": "https://api.spotify.com/v1/artists/5YGY8feqx7naU7z4HrwZM6",
      "id": "5YGY8feqx7naU7z4HrwZM6",
      "images": [
        {
          "height": 640,
          "url": "https://i.scdn.co/image/ae71f02aececa87c716a4e0abe39f703c9054d59",
          "width": 640
        },
        {
          "height": 320,
          "url": "https://i.scdn.co/image/6d741e9188b6f43bfb4f82010c375fa1a6df1916",
          "width": 320
        },
        {
          "height": 160,
          "url": "https://i.scdn.co/image/d594a099ac6729b8ab379b6bd8cf071c189718dd",
          "width": 160
        }
      ],
      "name": "Miley Cyrus",
      "popularity": 77,
      "type": "artist",
      "uri": "spotify:artist:5YGY8feqx7naU7z4HrwZM6"
    },
    {
      "external_urls": {
        "spotify": "https://open.spotify.com/artist/66CXWjxzNUsdJxJ2JdwvnR"
      },
      "followers": {
        "href": null,
        "total": 16446150
      },
      "genres": [
        "dance pop",
        "pop",
        "post-teen pop"
      ],
      "href": "https://api.spotify.com/v1/artists/66CXWjxzNUsdJxJ2JdwvnR",
      "id": "66CXWjxzNUsdJxJ2JdwvnR",
      "images": [
        {
          "height": 640,
          "url": "https://i.scdn.co/image/25dd6de55a74237ae84e1b53e083bbd5aadade39",
          "width": 640
        },
        {
          "height": 320,
          "url": "https://i.scdn.co/image/6c60edb78bf9b1c0eeb219c9fdbbc9453eceb2c6",
          "width": 320
        },
        {
          "height": 160,
          "url": "https://i.scdn.co/image/a1063f43437d1d724a3d7d8fe51410472d88cb27",
          "width": 160
        }
      ],
      "name": "Ariana Grande",
      "popularity": 88,
      "type": "artist",
      "uri": "spotify:artist:66CXWjxzNUsdJxJ2JdwvnR"
    },
    {
      "external_urls": {
        "spotify": "https://open.spotify.com/artist/2mvVgc0UMgFwXGktcNmA6l"
      },
      "followers": {
        "href": null,
        "total": 343722
      },
      "genres": [],
      "href": "https://api.spotify.com/v1/artists/2mvVgc0UMgFwXGktcNmA6l",
      "id": "2mvVgc0UMgFwXGktcNmA6l",
      "images": [
        {
          "height": 640,
          "url": "https://i.scdn.co/image/05241a4f5bc8f6f1daaf84fae1d1fb6665bdac31",
          "width": 640
        },
        {
          "height": 320,
          "url": "https://i.scdn.co/image/311a85ef93dc235564a9004d70cacdc592fe686c",
          "width": 320
        },
        {
          "height": 160,
          "url": "https://i.scdn.co/image/91adda45c8943784bc588e1139bdf74004c70e31",
          "width": 160
        }
      ],
      "name": "Elenco de Soy Luna",
      "popularity": 62,
      "type": "artist",
      "uri": "spotify:artist:2mvVgc0UMgFwXGktcNmA6l"
    },
    {
      "external_urls": {
        "spotify": "https://open.spotify.com/artist/2NvmDZar6FF2CICK1yBS4I"
      },
      "followers": {
        "href": null,
        "total": 131105
      },
      "genres": [
        "contemporary country"
      ],
      "href": "https://api.spotify.com/v1/artists/2NvmDZar6FF2CICK1yBS4I",
      "id": "2NvmDZar6FF2CICK1yBS4I",
      "images": [
        {
          "height": 640,
          "url": "https://i.scdn.co/image/47d4660329a0f088bb0f462d787af36f3792eaf0",
          "width": 640
        },
        {
          "height": 320,
          "url": "https://i.scdn.co/image/6e50684744778c77697391a6a980e2a45bcc3935",
          "width": 320
        },
        {
          "height": 160,
          "url": "https://i.scdn.co/image/2844e975871aaf9288b578fb4a6c8428fe49bd86",
          "width": 160
        }
      ],
      "name": "Nashville Cast",
      "popularity": 59,
      "type": "artist",
      "uri": "spotify:artist:2NvmDZar6FF2CICK1yBS4I"
    },
    {
      "external_urls": {
        "spotify": "https://open.spotify.com/artist/6VuMaDnrHyPL1p4EHjYLi7"
      },
      "followers": {
        "href": null,
        "total": 5178843
      },
      "genres": [
        "pop",
        "post-teen pop",
        "viral pop"
      ],
      "href": "https://api.spotify.com/v1/artists/6VuMaDnrHyPL1p4EHjYLi7",
      "id": "6VuMaDnrHyPL1p4EHjYLi7",
      "images": [
        {
          "height": 640,
          "url": "https://i.scdn.co/image/47963112e07a107bc02e14fd5f297cc82c76d92a",
          "width": 640
        },
        {
          "height": 320,
          "url": "https://i.scdn.co/image/b2a440211104532feac76903bb8806bced248510",
          "width": 320
        },
        {
          "height": 160,
          "url": "https://i.scdn.co/image/8f52b60917a1ca706ab676970259f6504fcb7b2c",
          "width": 160
        }
      ],
      "name": "Charlie Puth",
      "popularity": 82,
      "type": "artist",
      "uri": "spotify:artist:6VuMaDnrHyPL1p4EHjYLi7"
    }
  ],
  "total": 50,
  "limit": 10,
  "offset": 0,
  "href": "https://api.spotify.com/v1/me/top/artists?limit=10&offset=0&time_range=long_term",
  "previous": null,
  "next": "https://api.spotify.com/v1/me/top/artists?limit=10&offset=10&time_range=long_term"
}